%!PS-Adobe-2.0
%%Title: pic.ps
%%Creator: gnuplot 4.4 patchlevel 3
%%CreationDate: Wed Dec 14 15:20:25 2016
%%DocumentFonts: (atend)
%%BoundingBox: 50 50 554 770
%%Orientation: Landscape
%%Pages: (atend)
%%EndComments
%%BeginProlog
/gnudict 256 dict def
gnudict begin
%
% The following true/false flags may be edited by hand if desired.
% The unit line width and grayscale image gamma correction may also be changed.
%
/Color true def
/Blacktext false def
/Solid false def
/Dashlength 1 def
/Landscape true def
/Level1 false def
/Rounded false def
/ClipToBoundingBox false def
/TransparentPatterns false def
/gnulinewidth 5.000 def
/userlinewidth gnulinewidth def
/Gamma 1.0 def
%
/vshift -46 def
/dl1 {
  10.0 Dashlength mul mul
  Rounded { currentlinewidth 0.75 mul sub dup 0 le { pop 0.01 } if } if
} def
/dl2 {
  10.0 Dashlength mul mul
  Rounded { currentlinewidth 0.75 mul add } if
} def
/hpt_ 31.5 def
/vpt_ 31.5 def
/hpt hpt_ def
/vpt vpt_ def
Level1 {} {
/SDict 10 dict def
systemdict /pdfmark known not {
  userdict /pdfmark systemdict /cleartomark get put
} if
SDict begin [
  /Title (pic.ps)
  /Subject (gnuplot plot)
  /Creator (gnuplot 4.4 patchlevel 3)
  /Author (ullrichc)
%  /Producer (gnuplot)
%  /Keywords ()
  /CreationDate (Wed Dec 14 15:20:25 2016)
  /DOCINFO pdfmark
end
} ifelse
/doclip {
  ClipToBoundingBox {
    newpath 50 50 moveto 554 50 lineto 554 770 lineto 50 770 lineto closepath
    clip
  } if
} def
%
% Gnuplot Prolog Version 4.4 (August 2010)
%
%/SuppressPDFMark true def
%
/M {moveto} bind def
/L {lineto} bind def
/R {rmoveto} bind def
/V {rlineto} bind def
/N {newpath moveto} bind def
/Z {closepath} bind def
/C {setrgbcolor} bind def
/f {rlineto fill} bind def
/g {setgray} bind def
/Gshow {show} def   % May be redefined later in the file to support UTF-8
/vpt2 vpt 2 mul def
/hpt2 hpt 2 mul def
/Lshow {currentpoint stroke M 0 vshift R 
	Blacktext {gsave 0 setgray show grestore} {show} ifelse} def
/Rshow {currentpoint stroke M dup stringwidth pop neg vshift R
	Blacktext {gsave 0 setgray show grestore} {show} ifelse} def
/Cshow {currentpoint stroke M dup stringwidth pop -2 div vshift R 
	Blacktext {gsave 0 setgray show grestore} {show} ifelse} def
/UP {dup vpt_ mul /vpt exch def hpt_ mul /hpt exch def
  /hpt2 hpt 2 mul def /vpt2 vpt 2 mul def} def
/DL {Color {setrgbcolor Solid {pop []} if 0 setdash}
 {pop pop pop 0 setgray Solid {pop []} if 0 setdash} ifelse} def
/BL {stroke userlinewidth 2 mul setlinewidth
	Rounded {1 setlinejoin 1 setlinecap} if} def
/AL {stroke userlinewidth 2 div setlinewidth
	Rounded {1 setlinejoin 1 setlinecap} if} def
/UL {dup gnulinewidth mul /userlinewidth exch def
	dup 1 lt {pop 1} if 10 mul /udl exch def} def
/PL {stroke userlinewidth 2 mul setlinewidth
	Rounded {1 setlinejoin 1 setlinecap} if} def
3.8 setmiterlimit
% Default Line colors
/LCw {1 1 1} def
/LCb {0 0 0} def
/LCa {0 0 0} def
/LC0 {1 0 0} def
/LC1 {0 1 0} def
/LC2 {0 0 1} def
/LC3 {1 0 1} def
/LC4 {0 1 1} def
/LC5 {1 1 0} def
/LC6 {0 0 0} def
/LC7 {1 0.3 0} def
/LC8 {0.5 0.5 0.5} def
% Default Line Types
/LTw {PL [] 1 setgray} def
/LTb {BL [] LCb DL} def
/LTa {AL [1 udl mul 2 udl mul] 0 setdash LCa setrgbcolor} def
/LT0 {PL [] LC0 DL} def
/LT1 {PL [] LC1 DL} def
/LT2 {PL [] LC2 DL} def
/LT3 {PL [1 dl1 1.5 dl2] LC3 DL} def
/LT4 {PL [6 dl1 2 dl2 1 dl1 2 dl2] LC4 DL} def
/LT5 {PL [3 dl1 3 dl2 1 dl1 3 dl2] LC5 DL} def
/LT6 {PL [2 dl1 2 dl2 2 dl1 6 dl2] LC6 DL} def
/LT7 {PL [1 dl1 2 dl2 6 dl1 2 dl2 1 dl1 2 dl2] LC7 DL} def
/LT8 {PL [2 dl1 2 dl2 2 dl1 2 dl2 2 dl1 2 dl2 2 dl1 4 dl2] LC8 DL} def
/Pnt {stroke [] 0 setdash gsave 1 setlinecap M 0 0 V stroke grestore} def
/Dia {stroke [] 0 setdash 2 copy vpt add M
  hpt neg vpt neg V hpt vpt neg V
  hpt vpt V hpt neg vpt V closepath stroke
  Pnt} def
/Pls {stroke [] 0 setdash vpt sub M 0 vpt2 V
  currentpoint stroke M
  hpt neg vpt neg R hpt2 0 V stroke
 } def
/Box {stroke [] 0 setdash 2 copy exch hpt sub exch vpt add M
  0 vpt2 neg V hpt2 0 V 0 vpt2 V
  hpt2 neg 0 V closepath stroke
  Pnt} def
/Crs {stroke [] 0 setdash exch hpt sub exch vpt add M
  hpt2 vpt2 neg V currentpoint stroke M
  hpt2 neg 0 R hpt2 vpt2 V stroke} def
/TriU {stroke [] 0 setdash 2 copy vpt 1.12 mul add M
  hpt neg vpt -1.62 mul V
  hpt 2 mul 0 V
  hpt neg vpt 1.62 mul V closepath stroke
  Pnt} def
/Star {2 copy Pls Crs} def
/BoxF {stroke [] 0 setdash exch hpt sub exch vpt add M
  0 vpt2 neg V hpt2 0 V 0 vpt2 V
  hpt2 neg 0 V closepath fill} def
/TriUF {stroke [] 0 setdash vpt 1.12 mul add M
  hpt neg vpt -1.62 mul V
  hpt 2 mul 0 V
  hpt neg vpt 1.62 mul V closepath fill} def
/TriD {stroke [] 0 setdash 2 copy vpt 1.12 mul sub M
  hpt neg vpt 1.62 mul V
  hpt 2 mul 0 V
  hpt neg vpt -1.62 mul V closepath stroke
  Pnt} def
/TriDF {stroke [] 0 setdash vpt 1.12 mul sub M
  hpt neg vpt 1.62 mul V
  hpt 2 mul 0 V
  hpt neg vpt -1.62 mul V closepath fill} def
/DiaF {stroke [] 0 setdash vpt add M
  hpt neg vpt neg V hpt vpt neg V
  hpt vpt V hpt neg vpt V closepath fill} def
/Pent {stroke [] 0 setdash 2 copy gsave
  translate 0 hpt M 4 {72 rotate 0 hpt L} repeat
  closepath stroke grestore Pnt} def
/PentF {stroke [] 0 setdash gsave
  translate 0 hpt M 4 {72 rotate 0 hpt L} repeat
  closepath fill grestore} def
/Circle {stroke [] 0 setdash 2 copy
  hpt 0 360 arc stroke Pnt} def
/CircleF {stroke [] 0 setdash hpt 0 360 arc fill} def
/C0 {BL [] 0 setdash 2 copy moveto vpt 90 450 arc} bind def
/C1 {BL [] 0 setdash 2 copy moveto
	2 copy vpt 0 90 arc closepath fill
	vpt 0 360 arc closepath} bind def
/C2 {BL [] 0 setdash 2 copy moveto
	2 copy vpt 90 180 arc closepath fill
	vpt 0 360 arc closepath} bind def
/C3 {BL [] 0 setdash 2 copy moveto
	2 copy vpt 0 180 arc closepath fill
	vpt 0 360 arc closepath} bind def
/C4 {BL [] 0 setdash 2 copy moveto
	2 copy vpt 180 270 arc closepath fill
	vpt 0 360 arc closepath} bind def
/C5 {BL [] 0 setdash 2 copy moveto
	2 copy vpt 0 90 arc
	2 copy moveto
	2 copy vpt 180 270 arc closepath fill
	vpt 0 360 arc} bind def
/C6 {BL [] 0 setdash 2 copy moveto
	2 copy vpt 90 270 arc closepath fill
	vpt 0 360 arc closepath} bind def
/C7 {BL [] 0 setdash 2 copy moveto
	2 copy vpt 0 270 arc closepath fill
	vpt 0 360 arc closepath} bind def
/C8 {BL [] 0 setdash 2 copy moveto
	2 copy vpt 270 360 arc closepath fill
	vpt 0 360 arc closepath} bind def
/C9 {BL [] 0 setdash 2 copy moveto
	2 copy vpt 270 450 arc closepath fill
	vpt 0 360 arc closepath} bind def
/C10 {BL [] 0 setdash 2 copy 2 copy moveto vpt 270 360 arc closepath fill
	2 copy moveto
	2 copy vpt 90 180 arc closepath fill
	vpt 0 360 arc closepath} bind def
/C11 {BL [] 0 setdash 2 copy moveto
	2 copy vpt 0 180 arc closepath fill
	2 copy moveto
	2 copy vpt 270 360 arc closepath fill
	vpt 0 360 arc closepath} bind def
/C12 {BL [] 0 setdash 2 copy moveto
	2 copy vpt 180 360 arc closepath fill
	vpt 0 360 arc closepath} bind def
/C13 {BL [] 0 setdash 2 copy moveto
	2 copy vpt 0 90 arc closepath fill
	2 copy moveto
	2 copy vpt 180 360 arc closepath fill
	vpt 0 360 arc closepath} bind def
/C14 {BL [] 0 setdash 2 copy moveto
	2 copy vpt 90 360 arc closepath fill
	vpt 0 360 arc} bind def
/C15 {BL [] 0 setdash 2 copy vpt 0 360 arc closepath fill
	vpt 0 360 arc closepath} bind def
/Rec {newpath 4 2 roll moveto 1 index 0 rlineto 0 exch rlineto
	neg 0 rlineto closepath} bind def
/Square {dup Rec} bind def
/Bsquare {vpt sub exch vpt sub exch vpt2 Square} bind def
/S0 {BL [] 0 setdash 2 copy moveto 0 vpt rlineto BL Bsquare} bind def
/S1 {BL [] 0 setdash 2 copy vpt Square fill Bsquare} bind def
/S2 {BL [] 0 setdash 2 copy exch vpt sub exch vpt Square fill Bsquare} bind def
/S3 {BL [] 0 setdash 2 copy exch vpt sub exch vpt2 vpt Rec fill Bsquare} bind def
/S4 {BL [] 0 setdash 2 copy exch vpt sub exch vpt sub vpt Square fill Bsquare} bind def
/S5 {BL [] 0 setdash 2 copy 2 copy vpt Square fill
	exch vpt sub exch vpt sub vpt Square fill Bsquare} bind def
/S6 {BL [] 0 setdash 2 copy exch vpt sub exch vpt sub vpt vpt2 Rec fill Bsquare} bind def
/S7 {BL [] 0 setdash 2 copy exch vpt sub exch vpt sub vpt vpt2 Rec fill
	2 copy vpt Square fill Bsquare} bind def
/S8 {BL [] 0 setdash 2 copy vpt sub vpt Square fill Bsquare} bind def
/S9 {BL [] 0 setdash 2 copy vpt sub vpt vpt2 Rec fill Bsquare} bind def
/S10 {BL [] 0 setdash 2 copy vpt sub vpt Square fill 2 copy exch vpt sub exch vpt Square fill
	Bsquare} bind def
/S11 {BL [] 0 setdash 2 copy vpt sub vpt Square fill 2 copy exch vpt sub exch vpt2 vpt Rec fill
	Bsquare} bind def
/S12 {BL [] 0 setdash 2 copy exch vpt sub exch vpt sub vpt2 vpt Rec fill Bsquare} bind def
/S13 {BL [] 0 setdash 2 copy exch vpt sub exch vpt sub vpt2 vpt Rec fill
	2 copy vpt Square fill Bsquare} bind def
/S14 {BL [] 0 setdash 2 copy exch vpt sub exch vpt sub vpt2 vpt Rec fill
	2 copy exch vpt sub exch vpt Square fill Bsquare} bind def
/S15 {BL [] 0 setdash 2 copy Bsquare fill Bsquare} bind def
/D0 {gsave translate 45 rotate 0 0 S0 stroke grestore} bind def
/D1 {gsave translate 45 rotate 0 0 S1 stroke grestore} bind def
/D2 {gsave translate 45 rotate 0 0 S2 stroke grestore} bind def
/D3 {gsave translate 45 rotate 0 0 S3 stroke grestore} bind def
/D4 {gsave translate 45 rotate 0 0 S4 stroke grestore} bind def
/D5 {gsave translate 45 rotate 0 0 S5 stroke grestore} bind def
/D6 {gsave translate 45 rotate 0 0 S6 stroke grestore} bind def
/D7 {gsave translate 45 rotate 0 0 S7 stroke grestore} bind def
/D8 {gsave translate 45 rotate 0 0 S8 stroke grestore} bind def
/D9 {gsave translate 45 rotate 0 0 S9 stroke grestore} bind def
/D10 {gsave translate 45 rotate 0 0 S10 stroke grestore} bind def
/D11 {gsave translate 45 rotate 0 0 S11 stroke grestore} bind def
/D12 {gsave translate 45 rotate 0 0 S12 stroke grestore} bind def
/D13 {gsave translate 45 rotate 0 0 S13 stroke grestore} bind def
/D14 {gsave translate 45 rotate 0 0 S14 stroke grestore} bind def
/D15 {gsave translate 45 rotate 0 0 S15 stroke grestore} bind def
/DiaE {stroke [] 0 setdash vpt add M
  hpt neg vpt neg V hpt vpt neg V
  hpt vpt V hpt neg vpt V closepath stroke} def
/BoxE {stroke [] 0 setdash exch hpt sub exch vpt add M
  0 vpt2 neg V hpt2 0 V 0 vpt2 V
  hpt2 neg 0 V closepath stroke} def
/TriUE {stroke [] 0 setdash vpt 1.12 mul add M
  hpt neg vpt -1.62 mul V
  hpt 2 mul 0 V
  hpt neg vpt 1.62 mul V closepath stroke} def
/TriDE {stroke [] 0 setdash vpt 1.12 mul sub M
  hpt neg vpt 1.62 mul V
  hpt 2 mul 0 V
  hpt neg vpt -1.62 mul V closepath stroke} def
/PentE {stroke [] 0 setdash gsave
  translate 0 hpt M 4 {72 rotate 0 hpt L} repeat
  closepath stroke grestore} def
/CircE {stroke [] 0 setdash 
  hpt 0 360 arc stroke} def
/Opaque {gsave closepath 1 setgray fill grestore 0 setgray closepath} def
/DiaW {stroke [] 0 setdash vpt add M
  hpt neg vpt neg V hpt vpt neg V
  hpt vpt V hpt neg vpt V Opaque stroke} def
/BoxW {stroke [] 0 setdash exch hpt sub exch vpt add M
  0 vpt2 neg V hpt2 0 V 0 vpt2 V
  hpt2 neg 0 V Opaque stroke} def
/TriUW {stroke [] 0 setdash vpt 1.12 mul add M
  hpt neg vpt -1.62 mul V
  hpt 2 mul 0 V
  hpt neg vpt 1.62 mul V Opaque stroke} def
/TriDW {stroke [] 0 setdash vpt 1.12 mul sub M
  hpt neg vpt 1.62 mul V
  hpt 2 mul 0 V
  hpt neg vpt -1.62 mul V Opaque stroke} def
/PentW {stroke [] 0 setdash gsave
  translate 0 hpt M 4 {72 rotate 0 hpt L} repeat
  Opaque stroke grestore} def
/CircW {stroke [] 0 setdash 
  hpt 0 360 arc Opaque stroke} def
/BoxFill {gsave Rec 1 setgray fill grestore} def
/Density {
  /Fillden exch def
  currentrgbcolor
  /ColB exch def /ColG exch def /ColR exch def
  /ColR ColR Fillden mul Fillden sub 1 add def
  /ColG ColG Fillden mul Fillden sub 1 add def
  /ColB ColB Fillden mul Fillden sub 1 add def
  ColR ColG ColB setrgbcolor} def
/BoxColFill {gsave Rec PolyFill} def
/PolyFill {gsave Density fill grestore grestore} def
/h {rlineto rlineto rlineto gsave closepath fill grestore} bind def
%
% PostScript Level 1 Pattern Fill routine for rectangles
% Usage: x y w h s a XX PatternFill
%	x,y = lower left corner of box to be filled
%	w,h = width and height of box
%	  a = angle in degrees between lines and x-axis
%	 XX = 0/1 for no/yes cross-hatch
%
/PatternFill {gsave /PFa [ 9 2 roll ] def
  PFa 0 get PFa 2 get 2 div add PFa 1 get PFa 3 get 2 div add translate
  PFa 2 get -2 div PFa 3 get -2 div PFa 2 get PFa 3 get Rec
  gsave 1 setgray fill grestore clip
  currentlinewidth 0.5 mul setlinewidth
  /PFs PFa 2 get dup mul PFa 3 get dup mul add sqrt def
  0 0 M PFa 5 get rotate PFs -2 div dup translate
  0 1 PFs PFa 4 get div 1 add floor cvi
	{PFa 4 get mul 0 M 0 PFs V} for
  0 PFa 6 get ne {
	0 1 PFs PFa 4 get div 1 add floor cvi
	{PFa 4 get mul 0 2 1 roll M PFs 0 V} for
 } if
  stroke grestore} def
%
/languagelevel where
 {pop languagelevel} {1} ifelse
 2 lt
	{/InterpretLevel1 true def}
	{/InterpretLevel1 Level1 def}
 ifelse
%
% PostScript level 2 pattern fill definitions
%
/Level2PatternFill {
/Tile8x8 {/PaintType 2 /PatternType 1 /TilingType 1 /BBox [0 0 8 8] /XStep 8 /YStep 8}
	bind def
/KeepColor {currentrgbcolor [/Pattern /DeviceRGB] setcolorspace} bind def
<< Tile8x8
 /PaintProc {0.5 setlinewidth pop 0 0 M 8 8 L 0 8 M 8 0 L stroke} 
>> matrix makepattern
/Pat1 exch def
<< Tile8x8
 /PaintProc {0.5 setlinewidth pop 0 0 M 8 8 L 0 8 M 8 0 L stroke
	0 4 M 4 8 L 8 4 L 4 0 L 0 4 L stroke}
>> matrix makepattern
/Pat2 exch def
<< Tile8x8
 /PaintProc {0.5 setlinewidth pop 0 0 M 0 8 L
	8 8 L 8 0 L 0 0 L fill}
>> matrix makepattern
/Pat3 exch def
<< Tile8x8
 /PaintProc {0.5 setlinewidth pop -4 8 M 8 -4 L
	0 12 M 12 0 L stroke}
>> matrix makepattern
/Pat4 exch def
<< Tile8x8
 /PaintProc {0.5 setlinewidth pop -4 0 M 8 12 L
	0 -4 M 12 8 L stroke}
>> matrix makepattern
/Pat5 exch def
<< Tile8x8
 /PaintProc {0.5 setlinewidth pop -2 8 M 4 -4 L
	0 12 M 8 -4 L 4 12 M 10 0 L stroke}
>> matrix makepattern
/Pat6 exch def
<< Tile8x8
 /PaintProc {0.5 setlinewidth pop -2 0 M 4 12 L
	0 -4 M 8 12 L 4 -4 M 10 8 L stroke}
>> matrix makepattern
/Pat7 exch def
<< Tile8x8
 /PaintProc {0.5 setlinewidth pop 8 -2 M -4 4 L
	12 0 M -4 8 L 12 4 M 0 10 L stroke}
>> matrix makepattern
/Pat8 exch def
<< Tile8x8
 /PaintProc {0.5 setlinewidth pop 0 -2 M 12 4 L
	-4 0 M 12 8 L -4 4 M 8 10 L stroke}
>> matrix makepattern
/Pat9 exch def
/Pattern1 {PatternBgnd KeepColor Pat1 setpattern} bind def
/Pattern2 {PatternBgnd KeepColor Pat2 setpattern} bind def
/Pattern3 {PatternBgnd KeepColor Pat3 setpattern} bind def
/Pattern4 {PatternBgnd KeepColor Landscape {Pat5} {Pat4} ifelse setpattern} bind def
/Pattern5 {PatternBgnd KeepColor Landscape {Pat4} {Pat5} ifelse setpattern} bind def
/Pattern6 {PatternBgnd KeepColor Landscape {Pat9} {Pat6} ifelse setpattern} bind def
/Pattern7 {PatternBgnd KeepColor Landscape {Pat8} {Pat7} ifelse setpattern} bind def
} def
%
%
%End of PostScript Level 2 code
%
/PatternBgnd {
  TransparentPatterns {} {gsave 1 setgray fill grestore} ifelse
} def
%
% Substitute for Level 2 pattern fill codes with
% grayscale if Level 2 support is not selected.
%
/Level1PatternFill {
/Pattern1 {0.250 Density} bind def
/Pattern2 {0.500 Density} bind def
/Pattern3 {0.750 Density} bind def
/Pattern4 {0.125 Density} bind def
/Pattern5 {0.375 Density} bind def
/Pattern6 {0.625 Density} bind def
/Pattern7 {0.875 Density} bind def
} def
%
% Now test for support of Level 2 code
%
Level1 {Level1PatternFill} {Level2PatternFill} ifelse
%
/Symbol-Oblique /Symbol findfont [1 0 .167 1 0 0] makefont
dup length dict begin {1 index /FID eq {pop pop} {def} ifelse} forall
currentdict end definefont pop
end
%%EndProlog
%%Page: 1 1
gnudict begin
gsave
doclip
50 50 translate
0.100 0.100 scale
90 rotate
0 -5040 translate
0 setgray
newpath
(Helvetica) findfont 140 scalefont setfont
1.000 UL
LTb
LCb setrgbcolor
112 2519 M
currentpoint gsave translate -270 rotate 0 0 M
() Cshow
grestore
LTb
LCb setrgbcolor
7016 2519 M
currentpoint gsave translate -270 rotate 0 0 M
() Cshow
grestore
LTb
LCb setrgbcolor
3494 126 M
() Cshow
LTb
3494 4801 M
() Cshow
LCb setrgbcolor
3494 4800 M
() Cshow
LTb
112 238 M
() Lshow
1.000 UP
1.000 UL
LTb
% Begin plot #1
2.000 UL
LT0
/Helvetica findfont 140 scalefont setfont
2.000 UL
LT0
284 3855 M
-9 -16 V
16 9 V
-14 -7 R
-2 -2 V
stroke
gsave [] 0 setdash
284 3855 M
-9 -16 V
16 9 V
stroke
grestore
505 3807 M
-9 -19 V
18 11 V
30 42 R
-48 -53 V
stroke
gsave [] 0 setdash
505 3807 M
-9 -19 V
18 11 V
stroke
grestore
696 3733 M
-27 -59 V
53 37 V
88 130 R
669 3674 L
stroke
gsave [] 0 setdash
696 3733 M
-27 -59 V
53 37 V
stroke
grestore
870 3624 M
823 3508 L
99 76 V
155 257 R
823 3508 L
stroke
gsave [] 0 setdash
870 3624 M
823 3508 L
99 76 V
stroke
grestore
1035 3429 M
996 3310 L
93 83 V
255 448 R
996 3310 L
stroke
gsave [] 0 setdash
1035 3429 M
996 3310 L
93 83 V
stroke
grestore
1251 3232 M
-27 -122 V
85 92 V
301 639 R
1224 3110 L
stroke
gsave [] 0 setdash
1251 3232 M
-27 -122 V
85 92 V
stroke
grestore
1542 3065 M
-13 -125 V
74 101 V
274 800 R
1529 2940 L
stroke
gsave [] 0 setdash
1542 3065 M
-13 -125 V
74 101 V
stroke
grestore
1915 2958 M
5 -125 V
58 111 V
166 897 R
1920 2833 L
stroke
gsave [] 0 setdash
1915 2958 M
5 -125 V
58 111 V
stroke
grestore
2352 2938 M
29 -122 V
36 120 V
-7 905 R
2381 2816 L
stroke
gsave [] 0 setdash
2352 2938 M
29 -122 V
36 120 V
stroke
grestore
2822 3015 M
57 -112 V
6 125 V
-208 813 R
202 -938 V
stroke
gsave [] 0 setdash
2822 3015 M
57 -112 V
6 125 V
stroke
grestore
3285 3184 M
88 -89 V
-32 121 V
-397 625 R
429 -746 V
stroke
gsave [] 0 setdash
3285 3184 M
88 -89 V
-32 121 V
stroke
grestore
3701 3421 M
116 -48 V
-76 100 V
-531 368 R
607 -468 V
stroke
gsave [] 0 setdash
3701 3421 M
116 -48 V
-76 100 V
stroke
grestore
4049 3700 M
125 9 V
-113 54 V
-584 78 R
697 -132 V
stroke
gsave [] 0 setdash
4049 3700 M
125 9 V
-113 54 V
stroke
grestore
4323 3992 M
105 68 V
-125 -6 V
3744 3841 M
684 219 V
stroke
gsave [] 0 setdash
4323 3992 M
105 68 V
-125 -6 V
stroke
grestore
4514 4278 M
65 107 V
-110 -60 V
4010 3841 M
569 544 V
stroke
gsave [] 0 setdash
4514 4278 M
65 107 V
-110 -60 V
stroke
grestore
4631 4520 M
22 124 V
-81 -96 V
4277 3841 M
376 803 V
stroke
gsave [] 0 setdash
4631 4520 M
22 124 V
-81 -96 V
stroke
grestore
4701 4685 M
-14 125 V
-50 -115 V
-93 -854 R
143 969 V
stroke
gsave [] 0 setdash
4701 4685 M
-14 125 V
-50 -115 V
stroke
grestore
4769 4753 M
-42 118 V
-22 -123 V
105 -907 R
-83 1030 V
stroke
gsave [] 0 setdash
4769 4753 M
-42 118 V
-22 -123 V
stroke
grestore
4877 4720 M
-62 109 V
0 -126 V
262 -862 R
-262 988 V
stroke
gsave [] 0 setdash
4877 4720 M
-62 109 V
0 -126 V
stroke
grestore
5055 4605 M
-77 99 V
17 -124 V
349 -739 R
-366 863 V
stroke
gsave [] 0 setdash
5055 4605 M
-77 99 V
17 -124 V
stroke
grestore
5315 4433 M
-88 90 V
31 -122 V
352 -560 R
-383 682 V
stroke
gsave [] 0 setdash
5315 4433 M
-88 90 V
31 -122 V
stroke
grestore
5644 4239 M
-95 82 V
41 -118 V
287 -362 R
-328 480 V
stroke
gsave [] 0 setdash
5644 4239 M
-95 82 V
41 -118 V
stroke
grestore
6005 4064 M
-88 65 V
43 -101 V
184 -187 R
-227 288 V
stroke
gsave [] 0 setdash
6005 4064 M
-88 65 V
43 -101 V
stroke
grestore
6338 3945 M
-43 29 V
22 -47 V
93 -86 R
-115 133 V
stroke
gsave [] 0 setdash
6338 3945 M
-43 29 V
22 -47 V
stroke
grestore
6661 3865 M
-15 10 V
8 -16 V
23 -18 R
-31 34 V
stroke
gsave [] 0 setdash
6661 3865 M
-15 10 V
8 -16 V
stroke
grestore
% End plot #1
% Begin plot #2
2.000 UL
LT1
/Helvetica findfont 140 scalefont setfont
2.000 UL
LT1
188 3609 M
0 -104 V
51 90 V
38 246 R
188 3505 L
stroke
gsave [] 0 setdash
188 3609 M
0 -104 V
51 90 V
stroke
grestore
424 3545 M
-2 -125 V
65 107 V
57 314 R
422 3420 L
stroke
gsave [] 0 setdash
424 3545 M
-2 -125 V
65 107 V
stroke
grestore
654 3437 M
-4 -125 V
66 107 V
94 422 R
650 3312 L
stroke
gsave [] 0 setdash
654 3437 M
-4 -125 V
66 107 V
stroke
grestore
886 3312 M
-3 -125 V
65 107 V
129 547 R
883 3187 L
stroke
gsave [] 0 setdash
886 3312 M
-3 -125 V
65 107 V
stroke
grestore
1135 3186 M
0 -126 V
62 109 V
147 672 R
1135 3060 L
stroke
gsave [] 0 setdash
1135 3186 M
0 -126 V
62 109 V
stroke
grestore
1414 3073 M
6 -125 V
57 112 V
133 781 R
1420 2948 L
stroke
gsave [] 0 setdash
1414 3073 M
6 -125 V
57 112 V
stroke
grestore
1730 2995 M
15 -124 V
48 116 V
84 854 R
1745 2871 L
stroke
gsave [] 0 setdash
1730 2995 M
15 -124 V
48 116 V
stroke
grestore
2083 2970 M
28 -122 V
36 120 V
-3 873 R
-33 -993 V
stroke
gsave [] 0 setdash
2083 2970 M
28 -122 V
36 120 V
stroke
grestore
2464 3010 M
44 -117 V
19 124 V
-117 824 R
98 -948 V
stroke
gsave [] 0 setdash
2464 3010 M
44 -117 V
19 124 V
stroke
grestore
2852 3118 M
65 -107 V
-2 125 V
-238 705 R
240 -830 V
stroke
gsave [] 0 setdash
2852 3118 M
65 -107 V
-2 125 V
stroke
grestore
3229 3288 M
89 -88 V
-33 121 V
-341 520 R
374 -641 V
stroke
gsave [] 0 setdash
3229 3288 M
89 -88 V
-33 121 V
stroke
grestore
3572 3499 M
114 -52 V
-72 102 V
-404 292 R
476 -394 V
stroke
gsave [] 0 setdash
3572 3499 M
114 -52 V
-72 102 V
stroke
grestore
3879 3724 M
125 6 V
-112 56 V
-415 55 R
527 -111 V
stroke
gsave [] 0 setdash
3879 3724 M
125 6 V
-112 56 V
stroke
grestore
4160 3953 M
103 71 V
-125 -9 V
3744 3841 M
519 183 V
stroke
gsave [] 0 setdash
4160 3953 M
103 71 V
-125 -9 V
stroke
grestore
4403 4192 M
62 109 V
-108 -63 V
4010 3841 M
455 460 V
stroke
gsave [] 0 setdash
4403 4192 M
62 109 V
-108 -63 V
stroke
grestore
4596 4412 M
24 123 V
-83 -94 V
4277 3841 M
343 694 V
stroke
gsave [] 0 setdash
4596 4412 M
24 123 V
-83 -94 V
stroke
grestore
4751 4582 M
-3 125 V
-59 -110 V
4544 3841 M
204 866 V
stroke
gsave [] 0 setdash
4751 4582 M
-3 125 V
-59 -110 V
stroke
grestore
4897 4684 M
-24 123 V
-40 -119 V
-23 -847 R
63 966 V
stroke
gsave [] 0 setdash
4897 4684 M
-24 123 V
-40 -119 V
stroke
grestore
5056 4715 M
-40 119 V
-25 -123 V
86 -870 R
-61 993 V
stroke
gsave [] 0 setdash
5056 4715 M
-40 119 V
-25 -123 V
stroke
grestore
5244 4681 M
-51 115 V
-13 -125 V
164 -830 R
-151 955 V
stroke
gsave [] 0 setdash
5244 4681 M
-51 115 V
-13 -125 V
stroke
grestore
5470 4597 M
-58 111 V
-4 -125 V
202 -742 R
-198 867 V
stroke
gsave [] 0 setdash
5470 4597 M
-58 111 V
-4 -125 V
stroke
grestore
5733 4483 M
-63 108 V
0 -125 V
207 -625 R
-207 750 V
stroke
gsave [] 0 setdash
5733 4483 M
-63 108 V
0 -125 V
stroke
grestore
6023 4356 M
-66 107 V
3 -125 V
184 -497 R
-187 622 V
stroke
gsave [] 0 setdash
6023 4356 M
-66 107 V
3 -125 V
stroke
grestore
6326 4234 M
-66 107 V
3 -125 V
147 -375 R
-150 500 V
stroke
gsave [] 0 setdash
6326 4234 M
-66 107 V
3 -125 V
stroke
grestore
6627 4132 M
-63 106 V
1 -123 V
112 -274 R
-113 397 V
stroke
gsave [] 0 setdash
6627 4132 M
-63 106 V
1 -123 V
stroke
grestore
% End plot #2
% Begin plot #3
2.000 UL
LT2
/Helvetica findfont 140 scalefont setfont
2.000 UL
LT2
281 1250 M
-4 18 V
-4 -18 V
4 15 R
0 3 V
stroke
gsave [] 0 setdash
281 1250 M
-4 18 V
-4 -18 V
stroke
grestore
549 1315 M
-5 19 V
-5 -19 V
5 -50 R
0 69 V
stroke
gsave [] 0 setdash
549 1315 M
-5 19 V
-5 -19 V
stroke
grestore
828 1437 M
-18 69 V
-18 -69 V
18 -172 R
0 241 V
stroke
gsave [] 0 setdash
828 1437 M
-18 69 V
-18 -69 V
stroke
grestore
1109 1651 M
-32 121 V
-32 -121 V
32 -386 R
0 507 V
stroke
gsave [] 0 setdash
1109 1651 M
-32 121 V
-32 -121 V
stroke
grestore
1376 1949 M
-32 121 V
-32 -121 V
32 -684 R
0 805 V
stroke
gsave [] 0 setdash
1376 1949 M
-32 121 V
-32 -121 V
stroke
grestore
1642 2176 M
-32 121 V
-32 -121 V
32 -911 R
0 1032 V
stroke
gsave [] 0 setdash
1642 2176 M
-32 121 V
-32 -121 V
stroke
grestore
1909 2238 M
-32 121 V
-32 -121 V
32 -973 R
0 1094 V
stroke
gsave [] 0 setdash
1909 2238 M
-32 121 V
-32 -121 V
stroke
grestore
2176 2092 M
-32 121 V
-32 -121 V
32 -827 R
0 948 V
stroke
gsave [] 0 setdash
2176 2092 M
-32 121 V
-32 -121 V
stroke
grestore
2442 1784 M
-32 121 V
-32 -121 V
32 -519 R
0 640 V
stroke
gsave [] 0 setdash
2442 1784 M
-32 121 V
-32 -121 V
stroke
grestore
2699 1469 M
-22 83 V
-22 -83 V
22 -204 R
0 287 V
stroke
gsave [] 0 setdash
2699 1469 M
-22 83 V
-22 -83 V
stroke
grestore
2948 1267 M
-4 18 V
-4 -18 V
4 -2 R
0 20 V
stroke
gsave [] 0 setdash
2948 1267 M
-4 18 V
-4 -18 V
stroke
grestore
3204 1206 M
6 -24 V
6 24 V
-6 59 R
0 -83 V
stroke
gsave [] 0 setdash
3204 1206 M
6 -24 V
6 24 V
stroke
grestore
3473 1246 M
4 -18 V
4 18 V
-4 19 R
0 -37 V
stroke
gsave [] 0 setdash
3473 1246 M
4 -18 V
4 18 V
stroke
grestore
3748 1305 M
-4 18 V
-4 -18 V
4 -40 R
0 58 V
stroke
gsave [] 0 setdash
3748 1305 M
-4 18 V
-4 -18 V
stroke
grestore
4015 1318 M
-5 21 V
-5 -21 V
5 -53 R
0 74 V
stroke
gsave [] 0 setdash
4015 1318 M
-5 21 V
-5 -21 V
stroke
grestore
4272 1213 M
5 -20 V
5 20 V
-5 52 R
0 -72 V
stroke
gsave [] 0 setdash
4272 1213 M
5 -20 V
5 20 V
stroke
grestore
4516 1001 M
28 -107 V
28 107 V
-28 264 R
0 -371 V
stroke
gsave [] 0 setdash
4516 1001 M
28 -107 V
28 107 V
stroke
grestore
4778 660 M
32 -121 V
32 121 V
-32 605 R
0 -726 V
stroke
gsave [] 0 setdash
4778 660 M
32 -121 V
32 121 V
stroke
grestore
5045 384 M
32 -121 V
32 121 V
-32 881 R
0 -1002 V
stroke
gsave [] 0 setdash
5045 384 M
32 -121 V
32 121 V
stroke
grestore
5312 289 M
32 -121 V
32 121 V
-32 976 R
0 -1097 V
stroke
gsave [] 0 setdash
5312 289 M
32 -121 V
32 121 V
stroke
grestore
5578 399 M
32 -121 V
32 121 V
-32 866 R
0 -987 V
stroke
gsave [] 0 setdash
5578 399 M
32 -121 V
32 121 V
stroke
grestore
5845 654 M
32 -121 V
32 121 V
-32 611 R
0 -732 V
stroke
gsave [] 0 setdash
5845 654 M
32 -121 V
32 121 V
stroke
grestore
6112 952 M
32 -121 V
32 121 V
-32 313 R
0 -434 V
stroke
gsave [] 0 setdash
6112 952 M
32 -121 V
32 121 V
stroke
grestore
6396 1131 M
14 -54 V
14 54 V
-14 134 R
0 -188 V
stroke
gsave [] 0 setdash
6396 1131 M
14 -54 V
14 54 V
stroke
grestore
6673 1241 M
4 -18 V
4 18 V
-4 24 R
0 -42 V
stroke
gsave [] 0 setdash
6673 1241 M
4 -18 V
4 18 V
stroke
grestore
% End plot #3
1.000 UP
1.000 UL
LTb
stroke
grestore
end
showpage
%%Trailer
%%DocumentFonts: Helvetica
%%Pages: 1
