 # q/kf,wp/ef,low q limit
   0.000000000000000E+00  -4.192862284286398E-05   0.000000000000000E+00  -4.233931142143201E-05   0.000000000000000E+00
   0.000000000000000E+00   5.713771571360261E-07   0.000000000000000E+00  -4.233931142143201E-05   0.000000000000000E+00
   2.000000000000000E-06  -4.183173809725171E-05  -9.031152543877543E-07  -4.234962332143202E-05   1.031190000000000E-08
   2.000000000000000E-06   1.682619027483382E-07  -9.031152543877543E-07  -4.234962332143202E-05   1.031190000000000E-08
   4.000000000000000E-06  -4.173485335163944E-05  -1.806230508775509E-06  -4.238055902143197E-05   4.124760000000000E-08
   4.000000000000000E-06  -7.348533516394161E-07  -1.806230508775509E-06  -4.238055902143197E-05   4.124760000000000E-08
   6.000000000000000E-06  -4.163796860602717E-05  -2.709345763163263E-06  -4.243211852143205E-05   9.280710000000001E-08
   6.000000000000000E-06  -1.637968606027170E-06  -2.709345763163263E-06  -4.243211852143205E-05   9.280710000000001E-08
   8.000000000000000E-06  -4.204108386041496E-05  -3.612461017551125E-06  -4.250430182143195E-05   1.649904000000000E-07
   8.000000000000000E-06  -2.541083860415033E-06  -3.612461017551125E-06  -4.250430182143195E-05   1.649904000000000E-07
   1.000000000000000E-05  -4.194419911480280E-05  -4.515576271938880E-06  -4.259710892143200E-05   2.577975000000001E-07
   1.000000000000000E-05  -3.444199114802787E-06  -4.515576271938880E-06  -4.259710892143200E-05   2.577975000000001E-07
   1.200000000000000E-05  -4.184731436919053E-05  -5.418691526326634E-06  -4.271053982143197E-05   3.712283999999998E-07
   1.200000000000000E-05  -4.347314369190542E-06  -5.418691526326634E-06  -4.271053982143197E-05   3.712283999999998E-07
   1.400000000000000E-05  -4.225042962357822E-05  -6.321806780714388E-06  -4.284459452143197E-05   5.052831000000001E-07
   1.400000000000000E-05  -5.250429623578296E-06  -6.321806780714388E-06  -4.284459452143197E-05   5.052831000000001E-07
   1.600000000000000E-05  -4.215354487796606E-05  -7.224922035102142E-06  -4.299927302143201E-05   6.599615999999997E-07
   1.600000000000000E-05  -6.153544877966050E-06  -7.224922035102142E-06  -4.299927302143201E-05   6.599615999999997E-07
   1.800000000000000E-05  -4.255666013235375E-05  -8.128037289489897E-06  -4.317457532143198E-05   8.352639000000000E-07
   1.800000000000000E-05  -7.056660132353804E-06  -8.128037289489897E-06  -4.317457532143198E-05   8.352639000000000E-07
   2.000000000000001E-05  -4.245977538674148E-05  -9.031152543877651E-06  -4.337050142143198E-05   1.031190000000001E-06
   2.000000000000001E-05  -7.959775386741559E-06  -9.031152543877651E-06  -4.337050142143198E-05   1.031190000000001E-06
   2.200000000000001E-05  -4.286289064112927E-05  -9.934267798265405E-06  -4.358705132143201E-05   1.247739900000001E-06
   2.200000000000001E-05  -9.362890641129379E-06  -9.934267798265405E-06  -4.358705132143201E-05   1.247739900000001E-06
   2.400000000000000E-05  -4.326600589551718E-05  -1.083738305265327E-05  -4.382422502143197E-05   1.484913600000000E-06
   2.400000000000000E-05  -1.026600589551724E-05  -1.083738305265327E-05  -4.382422502143197E-05   1.484913600000000E-06
   2.600000000000001E-05  -4.316912114990502E-05  -1.174049830704102E-05  -4.408202252143196E-05   1.742711100000001E-06
   2.600000000000001E-05  -1.116912114990489E-05  -1.174049830704102E-05  -4.408202252143196E-05   1.742711100000001E-06
   2.800000000000000E-05  -4.357223640429259E-05  -1.264361356142878E-05  -4.436044382143199E-05   2.021132400000000E-06
   2.800000000000000E-05  -1.207223640429275E-05  -1.264361356142878E-05  -4.436044382143199E-05   2.021132400000000E-06
   3.000000000000001E-05  -4.397535165868039E-05  -1.354672881581653E-05  -4.465948892143205E-05   2.320177500000001E-06
   3.000000000000001E-05  -1.297535165868040E-05  -1.354672881581653E-05  -4.465948892143205E-05   2.320177500000001E-06
   3.200000000000000E-05  -4.387846691306812E-05  -1.444984407020428E-05  -4.497915782143203E-05   2.639846400000000E-06
   3.200000000000000E-05  -1.387846691306826E-05  -1.444984407020428E-05  -4.497915782143203E-05   2.639846400000000E-06
   3.400000000000001E-05  -4.428158216745592E-05  -1.535295932459204E-05  -4.531945052143205E-05   2.980139100000001E-06
   3.400000000000001E-05  -1.478158216745590E-05  -1.535295932459204E-05  -4.531945052143205E-05   2.980139100000001E-06
   3.600000000000001E-05  -4.468469742184371E-05  -1.625607457897979E-05  -4.568036702143200E-05   3.341055600000001E-06
   3.600000000000001E-05  -1.568469742184377E-05  -1.625607457897979E-05  -4.568036702143200E-05   3.341055600000001E-06
   3.800000000000001E-05  -4.508781267623151E-05  -1.715918983336755E-05  -4.606190732143198E-05   3.722595900000001E-06
   3.800000000000001E-05  -1.658781267623141E-05  -1.715918983336755E-05  -4.606190732143198E-05   3.722595900000001E-06
   4.000000000000001E-05  -4.549092793061931E-05  -1.806230508775541E-05  -4.646407142143200E-05   4.124760000000002E-06
   4.000000000000001E-05  -1.749092793061928E-05  -1.806230508775541E-05  -4.646407142143200E-05   4.124760000000002E-06
   4.200000000000000E-05  -4.589404318500710E-05  -1.896542034214316E-05  -4.688685932143204E-05   4.547547900000001E-06
   4.200000000000000E-05  -1.839404318500714E-05  -1.896542034214316E-05  -4.688685932143204E-05   4.547547900000001E-06
   4.400000000000002E-05  -4.579715843939483E-05  -1.986853559653092E-05  -4.733027102143202E-05   4.990959600000004E-06
   4.400000000000002E-05  -1.929715843939478E-05  -1.986853559653092E-05  -4.733027102143202E-05   4.990959600000004E-06
   4.600000000000003E-05  -4.620027369378263E-05  -2.077165085091867E-05  -4.779430652143203E-05   5.454995100000007E-06
   4.600000000000003E-05  -2.020027369378265E-05  -2.077165085091867E-05  -4.779430652143203E-05   5.454995100000007E-06
   4.800000000000001E-05  -4.660338894817042E-05  -2.167476610530643E-05  -4.827896582143196E-05   5.939654400000004E-06
   4.800000000000001E-05  -2.110338894817029E-05  -2.167476610530643E-05  -4.827896582143196E-05   5.939654400000004E-06
   5.000000000000002E-05  -4.700650420255800E-05  -2.257788135969418E-05  -4.878424892143204E-05   6.444937500000004E-06
   5.000000000000002E-05  -2.200650420255816E-05  -2.257788135969418E-05  -4.878424892143204E-05   6.444937500000004E-06
   5.200000000000002E-05  -4.740961945694580E-05  -2.348099661408194E-05  -4.931015582143204E-05   6.970844400000005E-06
   5.200000000000002E-05  -2.290961945694580E-05  -2.348099661408194E-05  -4.931015582143204E-05   6.970844400000005E-06
   5.400000000000002E-05  -4.781273471133371E-05  -2.438411186846980E-05  -4.985668652143197E-05   7.517375100000004E-06
   5.400000000000002E-05  -2.381273471133366E-05  -2.438411186846980E-05  -4.985668652143197E-05   7.517375100000004E-06
   5.600000000000002E-05  -4.871584996572146E-05  -2.528722712285755E-05  -5.042384102143204E-05   8.084529600000004E-06
   5.600000000000002E-05  -2.471584996572153E-05  -2.528722712285755E-05  -5.042384102143204E-05   8.084529600000004E-06
   5.800000000000002E-05  -4.911896522010926E-05  -2.619034237724531E-05  -5.101161932143203E-05   8.672307900000005E-06
   5.800000000000002E-05  -2.561896522010917E-05  -2.619034237724531E-05  -5.101161932143203E-05   8.672307900000005E-06
   6.000000000000002E-05  -4.952208047449705E-05  -2.709345763163306E-05  -5.162002142143206E-05   9.280710000000007E-06
   6.000000000000002E-05  -2.652208047449704E-05  -2.709345763163306E-05  -5.162002142143206E-05   9.280710000000007E-06
   6.200000000000002E-05  -4.992519572888463E-05  -2.799657288602082E-05  -5.224904732143202E-05   9.909735900000005E-06
   6.200000000000002E-05  -2.742519572888468E-05  -2.799657288602082E-05  -5.224904732143202E-05   9.909735900000005E-06
   6.400000000000000E-05  -5.032831098327243E-05  -2.889968814040857E-05  -5.289869702143201E-05   1.055938560000000E-05
   6.400000000000000E-05  -2.832831098327254E-05  -2.889968814040857E-05  -5.289869702143201E-05   1.055938560000000E-05
   6.600000000000001E-05  -5.073142623766022E-05  -2.980280339479632E-05  -5.356897052143203E-05   1.122965910000000E-05
   6.600000000000001E-05  -2.923142623766019E-05  -2.980280339479632E-05  -5.356897052143203E-05   1.122965910000000E-05
   6.800000000000000E-05  -5.113454149204802E-05  -3.070591864918408E-05  -5.425986782143198E-05   1.192055640000000E-05
   6.800000000000000E-05  -3.013454149204805E-05  -3.070591864918408E-05  -5.425986782143198E-05   1.192055640000000E-05
   6.999999999999999E-05  -5.203765674643567E-05  -3.160903390357183E-05  -5.497138892143196E-05   1.263207750000000E-05
   6.999999999999999E-05  -3.103765674643570E-05  -3.160903390357183E-05  -5.497138892143196E-05   1.263207750000000E-05
   7.199999999999999E-05  -5.244077200082368E-05  -3.251214915795970E-05  -5.570353382143198E-05   1.336422240000000E-05
   7.199999999999999E-05  -3.194077200082356E-05  -3.251214915795970E-05  -5.570353382143198E-05   1.336422240000000E-05
   7.399999999999998E-05  -5.284388725521137E-05  -3.341526441234745E-05  -5.645630252143203E-05   1.411699109999999E-05
   7.399999999999998E-05  -3.284388725521142E-05  -3.341526441234745E-05  -5.645630252143203E-05   1.411699109999999E-05
   7.599999999999998E-05  -5.374700250959912E-05  -3.431837966673520E-05  -5.722969502143201E-05   1.489038359999999E-05
   7.599999999999998E-05  -3.374700250959907E-05  -3.431837966673520E-05  -5.722969502143201E-05   1.489038359999999E-05
   7.799999999999996E-05  -5.415011776398692E-05  -3.522149492112296E-05  -5.802371132143202E-05   1.568439989999998E-05
   7.799999999999996E-05  -3.465011776398693E-05  -3.522149492112296E-05  -5.802371132143202E-05   1.568439989999998E-05
   7.999999999999997E-05  -5.455323301837461E-05  -3.612461017551071E-05  -5.883835142143196E-05   1.649903999999998E-05
   7.999999999999997E-05  -3.555323301837458E-05  -3.612461017551071E-05  -5.883835142143196E-05   1.649903999999998E-05
   8.199999999999996E-05  -5.545634827276236E-05  -3.702772542989847E-05  -5.967361532143204E-05   1.733430389999998E-05
   8.199999999999996E-05  -3.645634827276244E-05  -3.702772542989847E-05  -5.967361532143204E-05   1.733430389999998E-05
   8.399999999999995E-05  -5.585946352715016E-05  -3.793084068428622E-05  -6.052950302143194E-05   1.819019159999998E-05
   8.399999999999995E-05  -3.735946352715009E-05  -3.793084068428622E-05  -6.052950302143194E-05   1.819019159999998E-05
   8.599999999999995E-05  -5.626257878153795E-05  -3.883395593867398E-05  -6.140601452143198E-05   1.906670309999998E-05
   8.599999999999995E-05  -3.826257878153795E-05  -3.883395593867398E-05  -6.140601452143198E-05   1.906670309999998E-05
   8.799999999999996E-05  -5.716569403592560E-05  -3.973707119306173E-05  -6.230314982143194E-05   1.996383839999998E-05
   8.799999999999996E-05  -3.916569403592559E-05  -3.973707119306173E-05  -6.230314982143194E-05   1.996383839999998E-05
   8.999999999999994E-05  -5.756880929031350E-05  -4.064018644744948E-05  -6.322090892143194E-05   2.088159749999997E-05
   8.999999999999994E-05  -4.006880929031346E-05  -4.064018644744948E-05  -6.322090892143194E-05   2.088159749999997E-05
   9.199999999999993E-05  -5.847192454470126E-05  -4.154330170183735E-05  -6.415929182143198E-05   2.181998039999997E-05
   9.199999999999993E-05  -4.097192454470132E-05  -4.154330170183735E-05  -6.415929182143198E-05   2.181998039999997E-05
   9.399999999999994E-05  -5.887503979908905E-05  -4.244641695622510E-05  -6.511829852143193E-05   2.277898709999997E-05
   9.399999999999994E-05  -4.187503979908897E-05  -4.244641695622510E-05  -6.511829852143193E-05   2.277898709999997E-05
   9.599999999999991E-05  -5.927815505347685E-05  -4.334953221061285E-05  -6.609792902143193E-05   2.375861759999996E-05
   9.599999999999991E-05  -4.277815505347683E-05  -4.334953221061285E-05  -6.609792902143193E-05   2.375861759999996E-05
   9.799999999999996E-05  -6.018127030786450E-05  -4.425264746500061E-05  -6.709818332143196E-05   2.475887189999998E-05
   9.799999999999996E-05  -4.368127030786447E-05  -4.425264746500061E-05  -6.709818332143196E-05   2.475887189999998E-05
   9.999999999999992E-05  -6.058438556225229E-05  -4.515576271938836E-05  -6.811906142143202E-05   2.577974999999996E-05
   9.999999999999992E-05  -4.458438556225234E-05  -4.515576271938836E-05  -6.811906142143202E-05   2.577974999999996E-05
   1.019999999999999E-04  -6.148750081663994E-05  -4.605887797377612E-05  -6.916056332143190E-05   2.682125189999994E-05
   1.019999999999999E-04  -4.548750081663998E-05  -4.605887797377612E-05  -6.916056332143190E-05   2.682125189999994E-05
   1.039999999999999E-04  -6.189061607102773E-05  -4.696199322816387E-05  -7.022268902143192E-05   2.788337759999992E-05
   1.039999999999999E-04  -4.639061607102785E-05  -4.696199322816387E-05  -7.022268902143192E-05   2.788337759999992E-05
   1.059999999999999E-04  -6.279373132541560E-05  -4.786510848255163E-05  -7.130543852143197E-05   2.896612709999995E-05
   1.059999999999999E-04  -4.729373132541549E-05  -4.786510848255163E-05  -7.130543852143197E-05   2.896612709999995E-05
   1.079999999999999E-04  -6.319684657980329E-05  -4.876822373693938E-05  -7.240881182143195E-05   3.006950039999994E-05
   1.079999999999999E-04  -4.819684657980335E-05  -4.876822373693938E-05  -7.240881182143195E-05   3.006950039999994E-05
   1.099999999999999E-04  -6.409996183419104E-05  -4.967133899132713E-05  -7.353280892143197E-05   3.119349749999993E-05
   1.099999999999999E-04  -4.909996183419100E-05  -4.967133899132713E-05  -7.353280892143197E-05   3.119349749999993E-05
   1.119999999999999E-04  -6.500307708857890E-05  -5.057445424571500E-05  -7.467742982143191E-05   3.233811839999995E-05
   1.119999999999999E-04  -5.000307708857886E-05  -5.057445424571500E-05  -7.467742982143191E-05   3.233811839999995E-05
   1.139999999999999E-04  -6.540619234296670E-05  -5.147756950010275E-05  -7.584267452143199E-05   3.350336309999993E-05
   1.139999999999999E-04  -5.090619234296673E-05  -5.147756950010275E-05  -7.584267452143199E-05   3.350336309999993E-05
   1.159999999999999E-04  -6.630930759735434E-05  -5.238068475449051E-05  -7.702854302143189E-05   3.468923159999991E-05
   1.159999999999999E-04  -5.180930759735437E-05  -5.238068475449051E-05  -7.702854302143189E-05   3.468923159999991E-05
   1.179999999999999E-04  -6.671242285174214E-05  -5.328380000887826E-05  -7.823503532143194E-05   3.589572389999995E-05
   1.179999999999999E-04  -5.271242285174223E-05  -5.328380000887826E-05  -7.823503532143194E-05   3.589572389999995E-05
   1.199999999999999E-04  -6.761553810613000E-05  -5.418691526326601E-05  -7.946215142143190E-05   3.712283999999992E-05
   1.199999999999999E-04  -5.361553810612988E-05  -5.418691526326601E-05  -7.946215142143190E-05   3.712283999999992E-05
   1.219999999999998E-04  -6.801865336051758E-05  -5.509003051765377E-05  -8.070989132143191E-05   3.837057989999990E-05
   1.219999999999998E-04  -5.451865336051774E-05  -5.509003051765377E-05  -8.070989132143191E-05   3.837057989999990E-05
   1.239999999999998E-04  -6.892176861490545E-05  -5.599314577204152E-05  -8.197825502143184E-05   3.963894359999986E-05
   1.239999999999998E-04  -5.542176861490539E-05  -5.599314577204152E-05  -8.197825502143184E-05   3.963894359999986E-05
   1.259999999999999E-04  -6.982488386929309E-05  -5.689626102642928E-05  -8.326724252143191E-05   4.092793109999991E-05
   1.259999999999999E-04  -5.632488386929325E-05  -5.689626102642928E-05  -8.326724252143191E-05   4.092793109999991E-05
   1.279999999999998E-04  -7.022799912368089E-05  -5.779937628081703E-05  -8.457685382143190E-05   4.223754239999989E-05
   1.279999999999998E-04  -5.722799912368090E-05  -5.779937628081703E-05  -8.457685382143190E-05   4.223754239999989E-05
   1.299999999999998E-04  -7.113111437806875E-05  -5.870249153520479E-05  -8.590708892143183E-05   4.356777749999986E-05
   1.299999999999998E-04  -5.813111437806876E-05  -5.870249153520479E-05  -8.590708892143183E-05   4.356777749999986E-05
   1.319999999999999E-04  -7.203422963245661E-05  -5.960560678959265E-05  -8.725794782143189E-05   4.491863639999992E-05
   1.319999999999999E-04  -5.903422963245662E-05  -5.960560678959265E-05  -8.725794782143189E-05   4.491863639999992E-05
   1.339999999999998E-04  -7.243734488684430E-05  -6.050872204398040E-05  -8.862943052143188E-05   4.629011909999989E-05
   1.339999999999998E-04  -5.993734488684427E-05  -6.050872204398040E-05  -8.862943052143188E-05   4.629011909999989E-05
   1.359999999999998E-04  -7.334046014123206E-05  -6.141183729836816E-05  -9.002153702143191E-05   4.768222559999984E-05
   1.359999999999998E-04  -6.084046014123213E-05  -6.141183729836816E-05  -9.002153702143191E-05   4.768222559999984E-05
   1.379999999999997E-04  -7.424357539561981E-05  -6.231495255275591E-05  -9.143426732143186E-05   4.909495589999982E-05
   1.379999999999997E-04  -6.174357539561978E-05  -6.231495255275591E-05  -9.143426732143186E-05   4.909495589999982E-05
   1.399999999999998E-04  -7.464669065000750E-05  -6.321806780714367E-05  -9.286762142143184E-05   5.052830999999987E-05
   1.399999999999998E-04  -6.264669065000764E-05  -6.321806780714367E-05  -9.286762142143184E-05   5.052830999999987E-05
   1.419999999999998E-04  -7.554980590439536E-05  -6.412118306153142E-05  -9.432159932143186E-05   5.198228789999985E-05
   1.419999999999998E-04  -6.354980590439529E-05  -6.412118306153142E-05  -9.432159932143186E-05   5.198228789999985E-05
   1.439999999999998E-04  -7.645292115878301E-05  -6.502429831591917E-05  -9.579620102143180E-05   5.345688959999982E-05
   1.439999999999998E-04  -6.445292115878315E-05  -6.502429831591917E-05  -9.579620102143180E-05   5.345688959999982E-05
   1.459999999999998E-04  -7.685603641317080E-05  -6.592741357030704E-05  -9.729142652143189E-05   5.495211509999987E-05
   1.459999999999998E-04  -6.535603641317079E-05  -6.592741357030704E-05  -9.729142652143189E-05   5.495211509999987E-05
   1.479999999999998E-04  -7.775915166755866E-05  -6.683052882469479E-05  -9.880727582143190E-05   5.646796439999985E-05
   1.479999999999998E-04  -6.625915166755866E-05  -6.683052882469479E-05  -9.880727582143190E-05   5.646796439999985E-05
   1.499999999999997E-04  -7.866226692194653E-05  -6.773364407908255E-05  -1.003437489214318E-04   5.800443749999980E-05
   1.499999999999997E-04  -6.716226692194652E-05  -6.773364407908255E-05  -1.003437489214318E-04   5.800443749999980E-05
   1.519999999999997E-04  -7.906538217633422E-05  -6.863675933347030E-05  -1.019008458214318E-04   5.956153439999979E-05
   1.519999999999997E-04  -6.806538217633416E-05  -6.863675933347030E-05  -1.019008458214318E-04   5.956153439999979E-05
   1.539999999999998E-04  -7.996849743072197E-05  -6.953987458785805E-05  -1.034785665214318E-04   6.113925509999982E-05
   1.539999999999998E-04  -6.896849743072203E-05  -6.953987458785805E-05  -1.034785665214318E-04   6.113925509999982E-05
   1.559999999999997E-04  -8.087161268510972E-05  -7.044298984224581E-05  -1.050769110214317E-04   6.273759959999977E-05
   1.559999999999997E-04  -6.987161268510967E-05  -7.044298984224581E-05  -1.050769110214317E-04   6.273759959999977E-05
   1.579999999999997E-04  -8.177472793949748E-05  -7.134610509663356E-05  -1.066958793214318E-04   6.435656789999976E-05
   1.579999999999997E-04  -7.077472793949754E-05  -7.134610509663356E-05  -1.066958793214318E-04   6.435656789999976E-05
   1.599999999999998E-04  -8.217784319388527E-05  -7.224922035102132E-05  -1.083354714214318E-04   6.599615999999980E-05
   1.599999999999998E-04  -7.167784319388518E-05  -7.224922035102132E-05  -1.083354714214318E-04   6.599615999999980E-05
   1.619999999999998E-04  -8.308095844827292E-05  -7.315233560540907E-05  -1.099956873214319E-04   6.765637589999980E-05
   1.619999999999998E-04  -7.258095844827304E-05  -7.315233560540907E-05  -1.099956873214319E-04   6.765637589999980E-05
   1.639999999999997E-04  -8.398407370266078E-05  -7.405545085979682E-05  -1.116765270214317E-04   6.933721559999974E-05
   1.639999999999997E-04  -7.348407370266069E-05  -7.405545085979682E-05  -1.116765270214317E-04   6.933721559999974E-05
   1.659999999999998E-04  -8.488718895704843E-05  -7.495856611418458E-05  -1.133779905214318E-04   7.103867909999979E-05
   1.659999999999998E-04  -7.438718895704855E-05  -7.495856611418458E-05  -1.133779905214318E-04   7.103867909999979E-05
   1.679999999999997E-04  -8.529030421143623E-05  -7.586168136857244E-05  -1.151000778214317E-04   7.276076639999978E-05
   1.679999999999997E-04  -7.529030421143620E-05  -7.586168136857244E-05  -1.151000778214317E-04   7.276076639999978E-05
   1.699999999999997E-04  -8.619341946582409E-05  -7.676479662296009E-05  -1.168427889214317E-04   7.450347749999972E-05
   1.699999999999997E-04  -7.619341946582406E-05  -7.676479662296009E-05  -1.168427889214317E-04   7.450347749999972E-05
   1.719999999999997E-04  -8.709653472021195E-05  -7.766791187734795E-05  -1.186061238214317E-04   7.626681239999971E-05
   1.719999999999997E-04  -7.709653472021192E-05  -7.766791187734795E-05  -1.186061238214317E-04   7.626681239999971E-05
   1.739999999999997E-04  -8.799964997459960E-05  -7.857102713173570E-05  -1.203900825214318E-04   7.805077109999976E-05
   1.739999999999997E-04  -7.799964997459957E-05  -7.857102713173570E-05  -1.203900825214318E-04   7.805077109999976E-05
   1.759999999999997E-04  -8.840276522898739E-05  -7.947414238612346E-05  -1.221946650214318E-04   7.985535359999972E-05
   1.759999999999997E-04  -7.890276522898743E-05  -7.947414238612346E-05  -1.221946650214318E-04   7.985535359999972E-05
   1.779999999999997E-04  -8.930588048337504E-05  -8.037725764051121E-05  -1.240198713214317E-04   8.168055989999970E-05
   1.779999999999997E-04  -7.980588048337508E-05  -8.037725764051121E-05  -1.240198713214317E-04   8.168055989999970E-05
   1.799999999999997E-04  -9.020899573776290E-05  -8.128037289489897E-05  -1.258657014214317E-04   8.352638999999974E-05
   1.799999999999997E-04  -8.070899573776294E-05  -8.128037289489897E-05  -1.258657014214317E-04   8.352638999999974E-05
   1.819999999999997E-04  -9.111211099215055E-05  -8.218348814928672E-05  -1.277321553214317E-04   8.539284389999971E-05
   1.819999999999997E-04  -8.161211099215059E-05  -8.218348814928672E-05  -1.277321553214317E-04   8.539284389999971E-05
   1.839999999999996E-04  -9.201522624653841E-05  -8.308660340367448E-05  -1.296192330214317E-04   8.727992159999966E-05
   1.839999999999996E-04  -8.251522624653845E-05  -8.308660340367448E-05  -1.296192330214317E-04   8.727992159999966E-05
   1.859999999999996E-04  -9.241834150092621E-05  -8.398971865806223E-05  -1.315269345214317E-04   8.918762309999966E-05
   1.859999999999996E-04  -8.341834150092610E-05  -8.398971865806223E-05  -1.315269345214317E-04   8.918762309999966E-05
   1.879999999999997E-04  -9.332145675531407E-05  -8.489283391245009E-05  -1.334552598214317E-04   9.111594839999970E-05
   1.879999999999997E-04  -8.432145675531396E-05  -8.489283391245009E-05  -1.334552598214317E-04   9.111594839999970E-05
   1.899999999999997E-04  -9.422457200970171E-05  -8.579594916683785E-05  -1.354042089214317E-04   9.306489749999967E-05
   1.899999999999997E-04  -8.522457200970182E-05  -8.579594916683785E-05  -1.354042089214317E-04   9.306489749999967E-05
   1.919999999999996E-04  -9.512768726408958E-05  -8.669906442122560E-05  -1.373737818214316E-04   9.503447039999962E-05
   1.919999999999996E-04  -8.612768726408947E-05  -8.669906442122560E-05  -1.373737818214316E-04   9.503447039999962E-05
   1.939999999999997E-04  -9.603080251847722E-05  -8.760217967561336E-05  -1.393639785214316E-04   9.702466709999967E-05
   1.939999999999997E-04  -8.703080251847733E-05  -8.760217967561336E-05  -1.393639785214316E-04   9.702466709999967E-05
   1.959999999999996E-04  -9.643391777286502E-05  -8.850529493000111E-05  -1.413747990214316E-04   9.903548759999963E-05
   1.959999999999996E-04  -8.793391777286498E-05  -8.850529493000111E-05  -1.413747990214316E-04   9.903548759999963E-05
   1.979999999999996E-04  -9.733703302725277E-05  -8.940841018438886E-05  -1.434062433214316E-04   1.010669318999996E-04
   1.979999999999996E-04  -8.933703302725269E-05  -8.940841018438886E-05  -1.434062433214316E-04   1.010669318999996E-04
